TP
==

-  `Les Iris de Fisher - Familiarisation avec R <../Doc/bs01.pdf>`__
-  `R pour débutant <../Doc/R-debut.pdf>`__
-  `R et tableau de
   contingence <../Doc/R_et_traitement_tableaux_de_contingence.pdf>`__

Cours
=====

-  `Cours Statistique descriptive <../Doc/Coursstatdescriptive.pdf>`__
-  `Cours Estimation Bellanger <../Doc/CoursEstimation.pdf>`__
-  `Cours Agreg <../Doc/ProbaAgreg1213-COURS2-Stat1.pdf>`__
-  `Charpentier <../Doc/cours-rappels-stats-M1.pdf>`__

Culture
=======

-  `Théorie Analytique de
   Laplace <../Doc/Laplace-TheorieAnalytique.pdf>`__

Bayésien
========

-  `Statistique Bayésienne <../Doc/lecture05.pdf>`__

.. code:: r

    %%R
    data(iris)
    iris



.. parsed-literal::

        Sepal.Length Sepal.Width Petal.Length Petal.Width    Species
    1            5.1         3.5          1.4         0.2     setosa
    2            4.9         3.0          1.4         0.2     setosa
    3            4.7         3.2          1.3         0.2     setosa
    4            4.6         3.1          1.5         0.2     setosa
    5            5.0         3.6          1.4         0.2     setosa
    6            5.4         3.9          1.7         0.4     setosa
    7            4.6         3.4          1.4         0.3     setosa
    8            5.0         3.4          1.5         0.2     setosa
    9            4.4         2.9          1.4         0.2     setosa
    10           4.9         3.1          1.5         0.1     setosa
    11           5.4         3.7          1.5         0.2     setosa
    12           4.8         3.4          1.6         0.2     setosa
    13           4.8         3.0          1.4         0.1     setosa
    14           4.3         3.0          1.1         0.1     setosa
    15           5.8         4.0          1.2         0.2     setosa
    16           5.7         4.4          1.5         0.4     setosa
    17           5.4         3.9          1.3         0.4     setosa
    18           5.1         3.5          1.4         0.3     setosa
    19           5.7         3.8          1.7         0.3     setosa
    20           5.1         3.8          1.5         0.3     setosa
    21           5.4         3.4          1.7         0.2     setosa
    22           5.1         3.7          1.5         0.4     setosa
    23           4.6         3.6          1.0         0.2     setosa
    24           5.1         3.3          1.7         0.5     setosa
    25           4.8         3.4          1.9         0.2     setosa
    26           5.0         3.0          1.6         0.2     setosa
    27           5.0         3.4          1.6         0.4     setosa
    28           5.2         3.5          1.5         0.2     setosa
    29           5.2         3.4          1.4         0.2     setosa
    30           4.7         3.2          1.6         0.2     setosa
    31           4.8         3.1          1.6         0.2     setosa
    32           5.4         3.4          1.5         0.4     setosa
    33           5.2         4.1          1.5         0.1     setosa
    34           5.5         4.2          1.4         0.2     setosa
    35           4.9         3.1          1.5         0.2     setosa
    36           5.0         3.2          1.2         0.2     setosa
    37           5.5         3.5          1.3         0.2     setosa
    38           4.9         3.6          1.4         0.1     setosa
    39           4.4         3.0          1.3         0.2     setosa
    40           5.1         3.4          1.5         0.2     setosa
    41           5.0         3.5          1.3         0.3     setosa
    42           4.5         2.3          1.3         0.3     setosa
    43           4.4         3.2          1.3         0.2     setosa
    44           5.0         3.5          1.6         0.6     setosa
    45           5.1         3.8          1.9         0.4     setosa
    46           4.8         3.0          1.4         0.3     setosa
    47           5.1         3.8          1.6         0.2     setosa
    48           4.6         3.2          1.4         0.2     setosa
    49           5.3         3.7          1.5         0.2     setosa
    50           5.0         3.3          1.4         0.2     setosa
    51           7.0         3.2          4.7         1.4 versicolor
    52           6.4         3.2          4.5         1.5 versicolor
    53           6.9         3.1          4.9         1.5 versicolor
    54           5.5         2.3          4.0         1.3 versicolor
    55           6.5         2.8          4.6         1.5 versicolor
    56           5.7         2.8          4.5         1.3 versicolor
    57           6.3         3.3          4.7         1.6 versicolor
    58           4.9         2.4          3.3         1.0 versicolor
    59           6.6         2.9          4.6         1.3 versicolor
    60           5.2         2.7          3.9         1.4 versicolor
    61           5.0         2.0          3.5         1.0 versicolor
    62           5.9         3.0          4.2         1.5 versicolor
    63           6.0         2.2          4.0         1.0 versicolor
    64           6.1         2.9          4.7         1.4 versicolor
    65           5.6         2.9          3.6         1.3 versicolor
    66           6.7         3.1          4.4         1.4 versicolor
    67           5.6         3.0          4.5         1.5 versicolor
    68           5.8         2.7          4.1         1.0 versicolor
    69           6.2         2.2          4.5         1.5 versicolor
    70           5.6         2.5          3.9         1.1 versicolor
    71           5.9         3.2          4.8         1.8 versicolor
    72           6.1         2.8          4.0         1.3 versicolor
    73           6.3         2.5          4.9         1.5 versicolor
    74           6.1         2.8          4.7         1.2 versicolor
    75           6.4         2.9          4.3         1.3 versicolor
    76           6.6         3.0          4.4         1.4 versicolor
    77           6.8         2.8          4.8         1.4 versicolor
    78           6.7         3.0          5.0         1.7 versicolor
    79           6.0         2.9          4.5         1.5 versicolor
    80           5.7         2.6          3.5         1.0 versicolor
    81           5.5         2.4          3.8         1.1 versicolor
    82           5.5         2.4          3.7         1.0 versicolor
    83           5.8         2.7          3.9         1.2 versicolor
    84           6.0         2.7          5.1         1.6 versicolor
    85           5.4         3.0          4.5         1.5 versicolor
    86           6.0         3.4          4.5         1.6 versicolor
    87           6.7         3.1          4.7         1.5 versicolor
    88           6.3         2.3          4.4         1.3 versicolor
    89           5.6         3.0          4.1         1.3 versicolor
    90           5.5         2.5          4.0         1.3 versicolor
    91           5.5         2.6          4.4         1.2 versicolor
    92           6.1         3.0          4.6         1.4 versicolor
    93           5.8         2.6          4.0         1.2 versicolor
    94           5.0         2.3          3.3         1.0 versicolor
    95           5.6         2.7          4.2         1.3 versicolor
    96           5.7         3.0          4.2         1.2 versicolor
    97           5.7         2.9          4.2         1.3 versicolor
    98           6.2         2.9          4.3         1.3 versicolor
    99           5.1         2.5          3.0         1.1 versicolor
    100          5.7         2.8          4.1         1.3 versicolor
    101          6.3         3.3          6.0         2.5  virginica
    102          5.8         2.7          5.1         1.9  virginica
    103          7.1         3.0          5.9         2.1  virginica
    104          6.3         2.9          5.6         1.8  virginica
    105          6.5         3.0          5.8         2.2  virginica
    106          7.6         3.0          6.6         2.1  virginica
    107          4.9         2.5          4.5         1.7  virginica
    108          7.3         2.9          6.3         1.8  virginica
    109          6.7         2.5          5.8         1.8  virginica
    110          7.2         3.6          6.1         2.5  virginica
    111          6.5         3.2          5.1         2.0  virginica
    112          6.4         2.7          5.3         1.9  virginica
    113          6.8         3.0          5.5         2.1  virginica
    114          5.7         2.5          5.0         2.0  virginica
    115          5.8         2.8          5.1         2.4  virginica
    116          6.4         3.2          5.3         2.3  virginica
    117          6.5         3.0          5.5         1.8  virginica
    118          7.7         3.8          6.7         2.2  virginica
    119          7.7         2.6          6.9         2.3  virginica
    120          6.0         2.2          5.0         1.5  virginica
    121          6.9         3.2          5.7         2.3  virginica
    122          5.6         2.8          4.9         2.0  virginica
    123          7.7         2.8          6.7         2.0  virginica
    124          6.3         2.7          4.9         1.8  virginica
    125          6.7         3.3          5.7         2.1  virginica
    126          7.2         3.2          6.0         1.8  virginica
    127          6.2         2.8          4.8         1.8  virginica
    128          6.1         3.0          4.9         1.8  virginica
    129          6.4         2.8          5.6         2.1  virginica
    130          7.2         3.0          5.8         1.6  virginica
    131          7.4         2.8          6.1         1.9  virginica
    132          7.9         3.8          6.4         2.0  virginica
    133          6.4         2.8          5.6         2.2  virginica
    134          6.3         2.8          5.1         1.5  virginica
    135          6.1         2.6          5.6         1.4  virginica
    136          7.7         3.0          6.1         2.3  virginica
    137          6.3         3.4          5.6         2.4  virginica
    138          6.4         3.1          5.5         1.8  virginica
    139          6.0         3.0          4.8         1.8  virginica
    140          6.9         3.1          5.4         2.1  virginica
    141          6.7         3.1          5.6         2.4  virginica
    142          6.9         3.1          5.1         2.3  virginica
    143          5.8         2.7          5.1         1.9  virginica
    144          6.8         3.2          5.9         2.3  virginica
    145          6.7         3.3          5.7         2.5  virginica
    146          6.7         3.0          5.2         2.3  virginica
    147          6.3         2.5          5.0         1.9  virginica
    148          6.5         3.0          5.2         2.0  virginica
    149          6.2         3.4          5.4         2.3  virginica
    150          5.9         3.0          5.1         1.8  virginica



.. code:: r

    %%R
    data(titanic)
    titanic



.. parsed-literal::

          Class    Sex   Age Survived
    1     first   male adult      yes
    2     first   male adult      yes
    3     first   male adult      yes
    4     first   male adult      yes
    5     first   male adult      yes
    6     first   male adult      yes
    7     first   male adult      yes
    8     first   male adult      yes
    9     first   male adult      yes
    10    first   male adult      yes
    11    first   male adult      yes
    12    first   male adult      yes
    13    first   male adult      yes
    14    first   male adult      yes
    15    first   male adult      yes
    16    first   male adult      yes
    17    first   male adult      yes
    18    first   male adult      yes
    19    first   male adult      yes
    20    first   male adult      yes
    21    first   male adult      yes
    22    first   male adult      yes
    23    first   male adult      yes
    24    first   male adult      yes
    25    first   male adult      yes
    26    first   male adult      yes
    27    first   male adult      yes
    28    first   male adult      yes
    29    first   male adult      yes
    30    first   male adult      yes
    31    first   male adult      yes
    32    first   male adult      yes
    33    first   male adult      yes
    34    first   male adult      yes
    35    first   male adult      yes
    36    first   male adult      yes
    37    first   male adult      yes
    38    first   male adult      yes
    39    first   male adult      yes
    40    first   male adult      yes
    41    first   male adult      yes
    42    first   male adult      yes
    43    first   male adult      yes
    44    first   male adult      yes
    45    first   male adult      yes
    46    first   male adult      yes
    47    first   male adult      yes
    48    first   male adult      yes
    49    first   male adult      yes
    50    first   male adult      yes
    51    first   male adult      yes
    52    first   male adult      yes
    53    first   male adult      yes
    54    first   male adult      yes
    55    first   male adult      yes
    56    first   male adult      yes
    57    first   male adult      yes
    58    first   male adult       no
    59    first   male adult       no
    60    first   male adult       no
    61    first   male adult       no
    62    first   male adult       no
    63    first   male adult       no
    64    first   male adult       no
    65    first   male adult       no
    66    first   male adult       no
    67    first   male adult       no
    68    first   male adult       no
    69    first   male adult       no
    70    first   male adult       no
    71    first   male adult       no
    72    first   male adult       no
    73    first   male adult       no
    74    first   male adult       no
    75    first   male adult       no
    76    first   male adult       no
    77    first   male adult       no
    78    first   male adult       no
    79    first   male adult       no
    80    first   male adult       no
    81    first   male adult       no
    82    first   male adult       no
    83    first   male adult       no
    84    first   male adult       no
    85    first   male adult       no
    86    first   male adult       no
    87    first   male adult       no
    88    first   male adult       no
    89    first   male adult       no
    90    first   male adult       no
    91    first   male adult       no
    92    first   male adult       no
    93    first   male adult       no
    94    first   male adult       no
    95    first   male adult       no
    96    first   male adult       no
    97    first   male adult       no
    98    first   male adult       no
    99    first   male adult       no
    100   first   male adult       no
    101   first   male adult       no
    102   first   male adult       no
    103   first   male adult       no
    104   first   male adult       no
    105   first   male adult       no
    106   first   male adult       no
    107   first   male adult       no
    108   first   male adult       no
    109   first   male adult       no
    110   first   male adult       no
    111   first   male adult       no
    112   first   male adult       no
    113   first   male adult       no
    114   first   male adult       no
    115   first   male adult       no
    116   first   male adult       no
    117   first   male adult       no
    118   first   male adult       no
    119   first   male adult       no
    120   first   male adult       no
    121   first   male adult       no
    122   first   male adult       no
    123   first   male adult       no
    124   first   male adult       no
    125   first   male adult       no
    126   first   male adult       no
    127   first   male adult       no
    128   first   male adult       no
    129   first   male adult       no
    130   first   male adult       no
    131   first   male adult       no
    132   first   male adult       no
    133   first   male adult       no
    134   first   male adult       no
    135   first   male adult       no
    136   first   male adult       no
    137   first   male adult       no
    138   first   male adult       no
    139   first   male adult       no
    140   first   male adult       no
    141   first   male adult       no
    142   first   male adult       no
    143   first   male adult       no
    144   first   male adult       no
    145   first   male adult       no
    146   first   male adult       no
    147   first   male adult       no
    148   first   male adult       no
    149   first   male adult       no
    150   first   male adult       no
    151   first   male adult       no
    152   first   male adult       no
    153   first   male adult       no
    154   first   male adult       no
    155   first   male adult       no
    156   first   male adult       no
    157   first   male adult       no
    158   first   male adult       no
    159   first   male adult       no
    160   first   male adult       no
    161   first   male adult       no
    162   first   male adult       no
    163   first   male adult       no
    164   first   male adult       no
    165   first   male adult       no
    166   first   male adult       no
    167   first   male adult       no
    168   first   male adult       no
    169   first   male adult       no
    170   first   male adult       no
    171   first   male adult       no
    172   first   male adult       no
    173   first   male adult       no
    174   first   male adult       no
    175   first   male adult       no
    176   first female adult      yes
    177   first female adult      yes
    178   first female adult      yes
    179   first female adult      yes
    180   first female adult      yes
    181   first female adult      yes
    182   first female adult      yes
    183   first female adult      yes
    184   first female adult      yes
    185   first female adult      yes
    186   first female adult      yes
    187   first female adult      yes
    188   first female adult      yes
    189   first female adult      yes
    190   first female adult      yes
    191   first female adult      yes
    192   first female adult      yes
    193   first female adult      yes
    194   first female adult      yes
    195   first female adult      yes
    196   first female adult      yes
    197   first female adult      yes
    198   first female adult      yes
    199   first female adult      yes
    200   first female adult      yes
    201   first female adult      yes
    202   first female adult      yes
    203   first female adult      yes
    204   first female adult      yes
    205   first female adult      yes
    206   first female adult      yes
    207   first female adult      yes
    208   first female adult      yes
    209   first female adult      yes
    210   first female adult      yes
    211   first female adult      yes
    212   first female adult      yes
    213   first female adult      yes
    214   first female adult      yes
    215   first female adult      yes
    216   first female adult      yes
    217   first female adult      yes
    218   first female adult      yes
    219   first female adult      yes
    220   first female adult      yes
    221   first female adult      yes
    222   first female adult      yes
    223   first female adult      yes
    224   first female adult      yes
    225   first female adult      yes
    226   first female adult      yes
    227   first female adult      yes
    228   first female adult      yes
    229   first female adult      yes
    230   first female adult      yes
    231   first female adult      yes
    232   first female adult      yes
    233   first female adult      yes
    234   first female adult      yes
    235   first female adult      yes
    236   first female adult      yes
    237   first female adult      yes
    238   first female adult      yes
    239   first female adult      yes
    240   first female adult      yes
    241   first female adult      yes
    242   first female adult      yes
    243   first female adult      yes
    244   first female adult      yes
    245   first female adult      yes
    246   first female adult      yes
    247   first female adult      yes
    248   first female adult      yes
    249   first female adult      yes
    250   first female adult      yes
    251   first female adult      yes
    252   first female adult      yes
    253   first female adult      yes
    254   first female adult      yes
    255   first female adult      yes
    256   first female adult      yes
    257   first female adult      yes
    258   first female adult      yes
    259   first female adult      yes
    260   first female adult      yes
    261   first female adult      yes
    262   first female adult      yes
    263   first female adult      yes
    264   first female adult      yes
    265   first female adult      yes
    266   first female adult      yes
    267   first female adult      yes
    268   first female adult      yes
    269   first female adult      yes
    270   first female adult      yes
    271   first female adult      yes
    272   first female adult      yes
    273   first female adult      yes
    274   first female adult      yes
    275   first female adult      yes
    276   first female adult      yes
    277   first female adult      yes
    278   first female adult      yes
    279   first female adult      yes
    280   first female adult      yes
    281   first female adult      yes
    282   first female adult      yes
    283   first female adult      yes
    284   first female adult      yes
    285   first female adult      yes
    286   first female adult      yes
    287   first female adult      yes
    288   first female adult      yes
    289   first female adult      yes
    290   first female adult      yes
    291   first female adult      yes
    292   first female adult      yes
    293   first female adult      yes
    294   first female adult      yes
    295   first female adult      yes
    296   first female adult      yes
    297   first female adult      yes
    298   first female adult      yes
    299   first female adult      yes
    300   first female adult      yes
    301   first female adult      yes
    302   first female adult      yes
    303   first female adult      yes
    304   first female adult      yes
    305   first female adult      yes
    306   first female adult      yes
    307   first female adult      yes
    308   first female adult      yes
    309   first female adult      yes
    310   first female adult      yes
    311   first female adult      yes
    312   first female adult      yes
    313   first female adult      yes
    314   first female adult      yes
    315   first female adult      yes
    316   first female adult       no
    317   first female adult       no
    318   first female adult       no
    319   first female adult       no
    320   first   male child      yes
    321   first   male child      yes
    322   first   male child      yes
    323   first   male child      yes
    324   first   male child      yes
    325   first female child      yes
    326  second   male adult      yes
    327  second   male adult      yes
    328  second   male adult      yes
    329  second   male adult      yes
    330  second   male adult      yes
    331  second   male adult      yes
    332  second   male adult      yes
    333  second   male adult      yes
    334  second   male adult      yes
    335  second   male adult      yes
    336  second   male adult      yes
    337  second   male adult      yes
    338  second   male adult      yes
    339  second   male adult      yes
    340  second   male adult       no
    341  second   male adult       no
    342  second   male adult       no
    343  second   male adult       no
    344  second   male adult       no
    345  second   male adult       no
    346  second   male adult       no
    347  second   male adult       no
    348  second   male adult       no
    349  second   male adult       no
    350  second   male adult       no
    351  second   male adult       no
    352  second   male adult       no
    353  second   male adult       no
    354  second   male adult       no
    355  second   male adult       no
    356  second   male adult       no
    357  second   male adult       no
    358  second   male adult       no
    359  second   male adult       no
    360  second   male adult       no
    361  second   male adult       no
    362  second   male adult       no
    363  second   male adult       no
    364  second   male adult       no
    365  second   male adult       no
    366  second   male adult       no
    367  second   male adult       no
    368  second   male adult       no
    369  second   male adult       no
    370  second   male adult       no
    371  second   male adult       no
    372  second   male adult       no
    373  second   male adult       no
    374  second   male adult       no
    375  second   male adult       no
    376  second   male adult       no
    377  second   male adult       no
    378  second   male adult       no
    379  second   male adult       no
    380  second   male adult       no
    381  second   male adult       no
    382  second   male adult       no
    383  second   male adult       no
    384  second   male adult       no
    385  second   male adult       no
    386  second   male adult       no
    387  second   male adult       no
    388  second   male adult       no
    389  second   male adult       no
    390  second   male adult       no
    391  second   male adult       no
    392  second   male adult       no
    393  second   male adult       no
    394  second   male adult       no
    395  second   male adult       no
    396  second   male adult       no
    397  second   male adult       no
    398  second   male adult       no
    399  second   male adult       no
    400  second   male adult       no
    401  second   male adult       no
    402  second   male adult       no
    403  second   male adult       no
    404  second   male adult       no
    405  second   male adult       no
    406  second   male adult       no
    407  second   male adult       no
    408  second   male adult       no
    409  second   male adult       no
    410  second   male adult       no
    411  second   male adult       no
    412  second   male adult       no
    413  second   male adult       no
    414  second   male adult       no
    415  second   male adult       no
    416  second   male adult       no
    417  second   male adult       no
    418  second   male adult       no
    419  second   male adult       no
    420  second   male adult       no
    421  second   male adult       no
    422  second   male adult       no
    423  second   male adult       no
    424  second   male adult       no
    425  second   male adult       no
    426  second   male adult       no
    427  second   male adult       no
    428  second   male adult       no
    429  second   male adult       no
    430  second   male adult       no
    431  second   male adult       no
    432  second   male adult       no
    433  second   male adult       no
    434  second   male adult       no
    435  second   male adult       no
    436  second   male adult       no
    437  second   male adult       no
    438  second   male adult       no
    439  second   male adult       no
    440  second   male adult       no
    441  second   male adult       no
    442  second   male adult       no
    443  second   male adult       no
    444  second   male adult       no
    445  second   male adult       no
    446  second   male adult       no
    447  second   male adult       no
    448  second   male adult       no
    449  second   male adult       no
    450  second   male adult       no
    451  second   male adult       no
    452  second   male adult       no
    453  second   male adult       no
    454  second   male adult       no
    455  second   male adult       no
    456  second   male adult       no
    457  second   male adult       no
    458  second   male adult       no
    459  second   male adult       no
    460  second   male adult       no
    461  second   male adult       no
    462  second   male adult       no
    463  second   male adult       no
    464  second   male adult       no
    465  second   male adult       no
    466  second   male adult       no
    467  second   male adult       no
    468  second   male adult       no
    469  second   male adult       no
    470  second   male adult       no
    471  second   male adult       no
    472  second   male adult       no
    473  second   male adult       no
    474  second   male adult       no
    475  second   male adult       no
    476  second   male adult       no
    477  second   male adult       no
    478  second   male adult       no
    479  second   male adult       no
    480  second   male adult       no
    481  second   male adult       no
    482  second   male adult       no
    483  second   male adult       no
    484  second   male adult       no
    485  second   male adult       no
    486  second   male adult       no
    487  second   male adult       no
    488  second   male adult       no
    489  second   male adult       no
    490  second   male adult       no
    491  second   male adult       no
    492  second   male adult       no
    493  second   male adult       no
    494  second female adult      yes
    495  second female adult      yes
    496  second female adult      yes
    497  second female adult      yes
    498  second female adult      yes
    499  second female adult      yes
    500  second female adult      yes
    501  second female adult      yes
    502  second female adult      yes
    503  second female adult      yes
    504  second female adult      yes
    505  second female adult      yes
    506  second female adult      yes
    507  second female adult      yes
    508  second female adult      yes
    509  second female adult      yes
    510  second female adult      yes
    511  second female adult      yes
    512  second female adult      yes
    513  second female adult      yes
    514  second female adult      yes
    515  second female adult      yes
    516  second female adult      yes
    517  second female adult      yes
    518  second female adult      yes
    519  second female adult      yes
    520  second female adult      yes
    521  second female adult      yes
    522  second female adult      yes
    523  second female adult      yes
    524  second female adult      yes
    525  second female adult      yes
    526  second female adult      yes
    527  second female adult      yes
    528  second female adult      yes
    529  second female adult      yes
    530  second female adult      yes
    531  second female adult      yes
    532  second female adult      yes
    533  second female adult      yes
    534  second female adult      yes
    535  second female adult      yes
    536  second female adult      yes
    537  second female adult      yes
    538  second female adult      yes
    539  second female adult      yes
    540  second female adult      yes
    541  second female adult      yes
    542  second female adult      yes
    543  second female adult      yes
    544  second female adult      yes
    545  second female adult      yes
    546  second female adult      yes
    547  second female adult      yes
    548  second female adult      yes
    549  second female adult      yes
    550  second female adult      yes
    551  second female adult      yes
    552  second female adult      yes
    553  second female adult      yes
    554  second female adult      yes
    555  second female adult      yes
    556  second female adult      yes
    557  second female adult      yes
    558  second female adult      yes
    559  second female adult      yes
    560  second female adult      yes
    561  second female adult      yes
    562  second female adult      yes
    563  second female adult      yes
    564  second female adult      yes
    565  second female adult      yes
    566  second female adult      yes
    567  second female adult      yes
    568  second female adult      yes
    569  second female adult      yes
    570  second female adult      yes
    571  second female adult      yes
    572  second female adult      yes
    573  second female adult      yes
    574  second female adult       no
    575  second female adult       no
    576  second female adult       no
    577  second female adult       no
    578  second female adult       no
    579  second female adult       no
    580  second female adult       no
    581  second female adult       no
    582  second female adult       no
    583  second female adult       no
    584  second female adult       no
    585  second female adult       no
    586  second female adult       no
    587  second   male child      yes
    588  second   male child      yes
    589  second   male child      yes
    590  second   male child      yes
    591  second   male child      yes
    592  second   male child      yes
    593  second   male child      yes
    594  second   male child      yes
    595  second   male child      yes
    596  second   male child      yes
    597  second   male child      yes
    598  second female child      yes
    599  second female child      yes
    600  second female child      yes
    601  second female child      yes
    602  second female child      yes
    603  second female child      yes
    604  second female child      yes
    605  second female child      yes
    606  second female child      yes
    607  second female child      yes
    608  second female child      yes
    609  second female child      yes
    610  second female child      yes
    611   third   male adult      yes
    612   third   male adult      yes
    613   third   male adult      yes
    614   third   male adult      yes
    615   third   male adult      yes
    616   third   male adult      yes
    617   third   male adult      yes
    618   third   male adult      yes
    619   third   male adult      yes
    620   third   male adult      yes
    621   third   male adult      yes
    622   third   male adult      yes
    623   third   male adult      yes
    624   third   male adult      yes
    625   third   male adult      yes
    626   third   male adult      yes
    627   third   male adult      yes
    628   third   male adult      yes
    629   third   male adult      yes
    630   third   male adult      yes
    631   third   male adult      yes
    632   third   male adult      yes
    633   third   male adult      yes
    634   third   male adult      yes
    635   third   male adult      yes
    636   third   male adult      yes
    637   third   male adult      yes
    638   third   male adult      yes
    639   third   male adult      yes
    640   third   male adult      yes
    641   third   male adult      yes
    642   third   male adult      yes
    643   third   male adult      yes
    644   third   male adult      yes
    645   third   male adult      yes
    646   third   male adult      yes
    647   third   male adult      yes
    648   third   male adult      yes
    649   third   male adult      yes
    650   third   male adult      yes
    651   third   male adult      yes
    652   third   male adult      yes
    653   third   male adult      yes
    654   third   male adult      yes
    655   third   male adult      yes
    656   third   male adult      yes
    657   third   male adult      yes
    658   third   male adult      yes
    659   third   male adult      yes
    660   third   male adult      yes
    661   third   male adult      yes
    662   third   male adult      yes
    663   third   male adult      yes
    664   third   male adult      yes
    665   third   male adult      yes
    666   third   male adult      yes
    667   third   male adult      yes
    668   third   male adult      yes
    669   third   male adult      yes
    670   third   male adult      yes
    671   third   male adult      yes
    672   third   male adult      yes
    673   third   male adult      yes
    674   third   male adult      yes
    675   third   male adult      yes
    676   third   male adult      yes
    677   third   male adult      yes
    678   third   male adult      yes
    679   third   male adult      yes
    680   third   male adult      yes
    681   third   male adult      yes
    682   third   male adult      yes
    683   third   male adult      yes
    684   third   male adult      yes
    685   third   male adult      yes
    686   third   male adult       no
    687   third   male adult       no
    688   third   male adult       no
    689   third   male adult       no
    690   third   male adult       no
    691   third   male adult       no
    692   third   male adult       no
    693   third   male adult       no
    694   third   male adult       no
    695   third   male adult       no
    696   third   male adult       no
    697   third   male adult       no
    698   third   male adult       no
    699   third   male adult       no
    700   third   male adult       no
    701   third   male adult       no
    702   third   male adult       no
    703   third   male adult       no
    704   third   male adult       no
    705   third   male adult       no
    706   third   male adult       no
    707   third   male adult       no
    708   third   male adult       no
    709   third   male adult       no
    710   third   male adult       no
    711   third   male adult       no
    712   third   male adult       no
    713   third   male adult       no
    714   third   male adult       no
    715   third   male adult       no
    716   third   male adult       no
    717   third   male adult       no
    718   third   male adult       no
    719   third   male adult       no
    720   third   male adult       no
    721   third   male adult       no
    722   third   male adult       no
    723   third   male adult       no
    724   third   male adult       no
    725   third   male adult       no
    726   third   male adult       no
    727   third   male adult       no
    728   third   male adult       no
    729   third   male adult       no
    730   third   male adult       no
    731   third   male adult       no
    732   third   male adult       no
    733   third   male adult       no
    734   third   male adult       no
    735   third   male adult       no
    736   third   male adult       no
    737   third   male adult       no
    738   third   male adult       no
    739   third   male adult       no
    740   third   male adult       no
    741   third   male adult       no
    742   third   male adult       no
    743   third   male adult       no
    744   third   male adult       no
    745   third   male adult       no
    746   third   male adult       no
    747   third   male adult       no
    748   third   male adult       no
    749   third   male adult       no
    750   third   male adult       no
    751   third   male adult       no
    752   third   male adult       no
    753   third   male adult       no
    754   third   male adult       no
    755   third   male adult       no
    756   third   male adult       no
    757   third   male adult       no
    758   third   male adult       no
    759   third   male adult       no
    760   third   male adult       no
    761   third   male adult       no
    762   third   male adult       no
    763   third   male adult       no
    764   third   male adult       no
    765   third   male adult       no
    766   third   male adult       no
    767   third   male adult       no
    768   third   male adult       no
    769   third   male adult       no
    770   third   male adult       no
    771   third   male adult       no
    772   third   male adult       no
    773   third   male adult       no
    774   third   male adult       no
    775   third   male adult       no
    776   third   male adult       no
    777   third   male adult       no
    778   third   male adult       no
    779   third   male adult       no
    780   third   male adult       no
    781   third   male adult       no
    782   third   male adult       no
    783   third   male adult       no
    784   third   male adult       no
    785   third   male adult       no
    786   third   male adult       no
    787   third   male adult       no
    788   third   male adult       no
    789   third   male adult       no
    790   third   male adult       no
    791   third   male adult       no
    792   third   male adult       no
    793   third   male adult       no
    794   third   male adult       no
    795   third   male adult       no
    796   third   male adult       no
    797   third   male adult       no
    798   third   male adult       no
    799   third   male adult       no
    800   third   male adult       no
    801   third   male adult       no
    802   third   male adult       no
    803   third   male adult       no
    804   third   male adult       no
    805   third   male adult       no
    806   third   male adult       no
    807   third   male adult       no
    808   third   male adult       no
    809   third   male adult       no
    810   third   male adult       no
    811   third   male adult       no
    812   third   male adult       no
    813   third   male adult       no
    814   third   male adult       no
    815   third   male adult       no
    816   third   male adult       no
    817   third   male adult       no
    818   third   male adult       no
    819   third   male adult       no
    820   third   male adult       no
    821   third   male adult       no
    822   third   male adult       no
    823   third   male adult       no
    824   third   male adult       no
    825   third   male adult       no
    826   third   male adult       no
    827   third   male adult       no
    828   third   male adult       no
    829   third   male adult       no
    830   third   male adult       no
    831   third   male adult       no
    832   third   male adult       no
    833   third   male adult       no
    834   third   male adult       no
    835   third   male adult       no
    836   third   male adult       no
    837   third   male adult       no
    838   third   male adult       no
    839   third   male adult       no
    840   third   male adult       no
    841   third   male adult       no
    842   third   male adult       no
    843   third   male adult       no
    844   third   male adult       no
    845   third   male adult       no
    846   third   male adult       no
    847   third   male adult       no
    848   third   male adult       no
    849   third   male adult       no
    850   third   male adult       no
    851   third   male adult       no
    852   third   male adult       no
    853   third   male adult       no
    854   third   male adult       no
    855   third   male adult       no
    856   third   male adult       no
    857   third   male adult       no
    858   third   male adult       no
    859   third   male adult       no
    860   third   male adult       no
    861   third   male adult       no
    862   third   male adult       no
    863   third   male adult       no
    864   third   male adult       no
    865   third   male adult       no
    866   third   male adult       no
    867   third   male adult       no
    868   third   male adult       no
    869   third   male adult       no
    870   third   male adult       no
    871   third   male adult       no
    872   third   male adult       no
    873   third   male adult       no
    874   third   male adult       no
    875   third   male adult       no
    876   third   male adult       no
    877   third   male adult       no
    878   third   male adult       no
    879   third   male adult       no
    880   third   male adult       no
    881   third   male adult       no
    882   third   male adult       no
    883   third   male adult       no
    884   third   male adult       no
    885   third   male adult       no
    886   third   male adult       no
    887   third   male adult       no
    888   third   male adult       no
    889   third   male adult       no
    890   third   male adult       no
    891   third   male adult       no
    892   third   male adult       no
    893   third   male adult       no
    894   third   male adult       no
    895   third   male adult       no
    896   third   male adult       no
    897   third   male adult       no
    898   third   male adult       no
    899   third   male adult       no
    900   third   male adult       no
    901   third   male adult       no
    902   third   male adult       no
    903   third   male adult       no
    904   third   male adult       no
    905   third   male adult       no
    906   third   male adult       no
    907   third   male adult       no
    908   third   male adult       no
    909   third   male adult       no
    910   third   male adult       no
    911   third   male adult       no
    912   third   male adult       no
    913   third   male adult       no
    914   third   male adult       no
    915   third   male adult       no
    916   third   male adult       no
    917   third   male adult       no
    918   third   male adult       no
    919   third   male adult       no
    920   third   male adult       no
    921   third   male adult       no
    922   third   male adult       no
    923   third   male adult       no
    924   third   male adult       no
    925   third   male adult       no
    926   third   male adult       no
    927   third   male adult       no
    928   third   male adult       no
    929   third   male adult       no
    930   third   male adult       no
    931   third   male adult       no
    932   third   male adult       no
    933   third   male adult       no
    934   third   male adult       no
    935   third   male adult       no
    936   third   male adult       no
    937   third   male adult       no
    938   third   male adult       no
    939   third   male adult       no
    940   third   male adult       no
    941   third   male adult       no
    942   third   male adult       no
    943   third   male adult       no
    944   third   male adult       no
    945   third   male adult       no
    946   third   male adult       no
    947   third   male adult       no
    948   third   male adult       no
    949   third   male adult       no
    950   third   male adult       no
    951   third   male adult       no
    952   third   male adult       no
    953   third   male adult       no
    954   third   male adult       no
    955   third   male adult       no
    956   third   male adult       no
    957   third   male adult       no
    958   third   male adult       no
    959   third   male adult       no
    960   third   male adult       no
    961   third   male adult       no
    962   third   male adult       no
    963   third   male adult       no
    964   third   male adult       no
    965   third   male adult       no
    966   third   male adult       no
    967   third   male adult       no
    968   third   male adult       no
    969   third   male adult       no
    970   third   male adult       no
    971   third   male adult       no
    972   third   male adult       no
    973   third   male adult       no
    974   third   male adult       no
    975   third   male adult       no
    976   third   male adult       no
    977   third   male adult       no
    978   third   male adult       no
    979   third   male adult       no
    980   third   male adult       no
    981   third   male adult       no
    982   third   male adult       no
    983   third   male adult       no
    984   third   male adult       no
    985   third   male adult       no
    986   third   male adult       no
    987   third   male adult       no
    988   third   male adult       no
    989   third   male adult       no
    990   third   male adult       no
    991   third   male adult       no
    992   third   male adult       no
    993   third   male adult       no
    994   third   male adult       no
    995   third   male adult       no
    996   third   male adult       no
    997   third   male adult       no
    998   third   male adult       no
    999   third   male adult       no
    1000  third   male adult       no
    1001  third   male adult       no
    1002  third   male adult       no
    1003  third   male adult       no
    1004  third   male adult       no
    1005  third   male adult       no
    1006  third   male adult       no
    1007  third   male adult       no
    1008  third   male adult       no
    1009  third   male adult       no
    1010  third   male adult       no
    1011  third   male adult       no
    1012  third   male adult       no
    1013  third   male adult       no
    1014  third   male adult       no
    1015  third   male adult       no
    1016  third   male adult       no
    1017  third   male adult       no
    1018  third   male adult       no
    1019  third   male adult       no
    1020  third   male adult       no
    1021  third   male adult       no
    1022  third   male adult       no
    1023  third   male adult       no
    1024  third   male adult       no
    1025  third   male adult       no
    1026  third   male adult       no
    1027  third   male adult       no
    1028  third   male adult       no
    1029  third   male adult       no
    1030  third   male adult       no
    1031  third   male adult       no
    1032  third   male adult       no
    1033  third   male adult       no
    1034  third   male adult       no
    1035  third   male adult       no
    1036  third   male adult       no
    1037  third   male adult       no
    1038  third   male adult       no
    1039  third   male adult       no
    1040  third   male adult       no
    1041  third   male adult       no
    1042  third   male adult       no
    1043  third   male adult       no
    1044  third   male adult       no
    1045  third   male adult       no
    1046  third   male adult       no
    1047  third   male adult       no
    1048  third   male adult       no
    1049  third   male adult       no
    1050  third   male adult       no
    1051  third   male adult       no
    1052  third   male adult       no
    1053  third   male adult       no
    1054  third   male adult       no
    1055  third   male adult       no
    1056  third   male adult       no
    1057  third   male adult       no
    1058  third   male adult       no
    1059  third   male adult       no
    1060  third   male adult       no
    1061  third   male adult       no
    1062  third   male adult       no
    1063  third   male adult       no
    1064  third   male adult       no
    1065  third   male adult       no
    1066  third   male adult       no
    1067  third   male adult       no
    1068  third   male adult       no
    1069  third   male adult       no
    1070  third   male adult       no
    1071  third   male adult       no
    1072  third   male adult       no
    1073  third female adult      yes
    1074  third female adult      yes
    1075  third female adult      yes
    1076  third female adult      yes
    1077  third female adult      yes
    1078  third female adult      yes
    1079  third female adult      yes
    1080  third female adult      yes
    1081  third female adult      yes
    1082  third female adult      yes
    1083  third female adult      yes
    1084  third female adult      yes
    1085  third female adult      yes
    1086  third female adult      yes
    1087  third female adult      yes
    1088  third female adult      yes
    1089  third female adult      yes
    1090  third female adult      yes
    1091  third female adult      yes
    1092  third female adult      yes
    1093  third female adult      yes
    1094  third female adult      yes
    1095  third female adult      yes
    1096  third female adult      yes
    1097  third female adult      yes
    1098  third female adult      yes
    1099  third female adult      yes
    1100  third female adult      yes
    1101  third female adult      yes
    1102  third female adult      yes
    1103  third female adult      yes
    1104  third female adult      yes
    1105  third female adult      yes
    1106  third female adult      yes
    1107  third female adult      yes
    1108  third female adult      yes
    1109  third female adult      yes
    1110  third female adult      yes
    1111  third female adult      yes
    1112  third female adult      yes
    1113  third female adult      yes
    1114  third female adult      yes
    1115  third female adult      yes
    1116  third female adult      yes
    1117  third female adult      yes
    1118  third female adult      yes
    1119  third female adult      yes
    1120  third female adult      yes
    1121  third female adult      yes
    1122  third female adult      yes
    1123  third female adult      yes
    1124  third female adult      yes
    1125  third female adult      yes
    1126  third female adult      yes
    1127  third female adult      yes
    1128  third female adult      yes
    1129  third female adult      yes
    1130  third female adult      yes
    1131  third female adult      yes
    1132  third female adult      yes
    1133  third female adult      yes
    1134  third female adult      yes
    1135  third female adult      yes
    1136  third female adult      yes
    1137  third female adult      yes
    1138  third female adult      yes
    1139  third female adult      yes
    1140  third female adult      yes
    1141  third female adult      yes
    1142  third female adult      yes
    1143  third female adult      yes
    1144  third female adult      yes
    1145  third female adult      yes
    1146  third female adult      yes
    1147  third female adult      yes
    1148  third female adult      yes
    1149  third female adult       no
    1150  third female adult       no
    1151  third female adult       no
    1152  third female adult       no
    1153  third female adult       no
    1154  third female adult       no
    1155  third female adult       no
    1156  third female adult       no
    1157  third female adult       no
    1158  third female adult       no
    1159  third female adult       no
    1160  third female adult       no
    1161  third female adult       no
    1162  third female adult       no
    1163  third female adult       no
    1164  third female adult       no
    1165  third female adult       no
    1166  third female adult       no
    1167  third female adult       no
    1168  third female adult       no
    1169  third female adult       no
    1170  third female adult       no
    1171  third female adult       no
    1172  third female adult       no
    1173  third female adult       no
    1174  third female adult       no
    1175  third female adult       no
    1176  third female adult       no
    1177  third female adult       no
    1178  third female adult       no
    1179  third female adult       no
    1180  third female adult       no
    1181  third female adult       no
    1182  third female adult       no
    1183  third female adult       no
    1184  third female adult       no
    1185  third female adult       no
    1186  third female adult       no
    1187  third female adult       no
    1188  third female adult       no
    1189  third female adult       no
    1190  third female adult       no
    1191  third female adult       no
    1192  third female adult       no
    1193  third female adult       no
    1194  third female adult       no
    1195  third female adult       no
    1196  third female adult       no
    1197  third female adult       no
    1198  third female adult       no
    1199  third female adult       no
    1200  third female adult       no
    1201  third female adult       no
    1202  third female adult       no
    1203  third female adult       no
    1204  third female adult       no
    1205  third female adult       no
    1206  third female adult       no
    1207  third female adult       no
    1208  third female adult       no
    1209  third female adult       no
    1210  third female adult       no
    1211  third female adult       no
    1212  third female adult       no
    1213  third female adult       no
    1214  third female adult       no
    1215  third female adult       no
    1216  third female adult       no
    1217  third female adult       no
    1218  third female adult       no
    1219  third female adult       no
    1220  third female adult       no
    1221  third female adult       no
    1222  third female adult       no
    1223  third female adult       no
    1224  third female adult       no
    1225  third female adult       no
    1226  third female adult       no
    1227  third female adult       no
    1228  third female adult       no
    1229  third female adult       no
    1230  third female adult       no
    1231  third female adult       no
    1232  third female adult       no
    1233  third female adult       no
    1234  third female adult       no
    1235  third female adult       no
    1236  third female adult       no
    1237  third female adult       no
    1238  third   male child      yes
    1239  third   male child      yes
    1240  third   male child      yes
    1241  third   male child      yes
    1242  third   male child      yes
    1243  third   male child      yes
    1244  third   male child      yes
    1245  third   male child      yes
    1246  third   male child      yes
    1247  third   male child      yes
    1248  third   male child      yes
    1249  third   male child      yes
    1250  third   male child      yes
    1251  third   male child       no
    1252  third   male child       no
    1253  third   male child       no
    1254  third   male child       no
    1255  third   male child       no
    1256  third   male child       no
    1257  third   male child       no
    1258  third   male child       no
    1259  third   male child       no
    1260  third   male child       no
    1261  third   male child       no
    1262  third   male child       no
    1263  third   male child       no
    1264  third   male child       no
    1265  third   male child       no
    1266  third   male child       no
    1267  third   male child       no
    1268  third   male child       no
    1269  third   male child       no
    1270  third   male child       no
    1271  third   male child       no
    1272  third   male child       no
    1273  third   male child       no
    1274  third   male child       no
    1275  third   male child       no
    1276  third   male child       no
    1277  third   male child       no
    1278  third   male child       no
    1279  third   male child       no
    1280  third   male child       no
    1281  third   male child       no
    1282  third   male child       no
    1283  third   male child       no
    1284  third   male child       no
    1285  third   male child       no
    1286  third female child      yes
    1287  third female child      yes
    1288  third female child      yes
    1289  third female child      yes
    1290  third female child      yes
    1291  third female child      yes
    1292  third female child      yes
    1293  third female child      yes
    1294  third female child      yes
    1295  third female child      yes
    1296  third female child      yes
    1297  third female child      yes
    1298  third female child      yes
    1299  third female child      yes
    1300  third female child       no
    1301  third female child       no
    1302  third female child       no
    1303  third female child       no
    1304  third female child       no
    1305  third female child       no
    1306  third female child       no
    1307  third female child       no
    1308  third female child       no
    1309  third female child       no
    1310  third female child       no
    1311  third female child       no
    1312  third female child       no
    1313  third female child       no
    1314  third female child       no
    1315  third female child       no
    1316  third female child       no
    1317   crew   male adult      yes
    1318   crew   male adult      yes
    1319   crew   male adult      yes
    1320   crew   male adult      yes
    1321   crew   male adult      yes
    1322   crew   male adult      yes
    1323   crew   male adult      yes
    1324   crew   male adult      yes
    1325   crew   male adult      yes
    1326   crew   male adult      yes
    1327   crew   male adult      yes
    1328   crew   male adult      yes
    1329   crew   male adult      yes
    1330   crew   male adult      yes
    1331   crew   male adult      yes
    1332   crew   male adult      yes
    1333   crew   male adult      yes
    1334   crew   male adult      yes
    1335   crew   male adult      yes
    1336   crew   male adult      yes
    1337   crew   male adult      yes
    1338   crew   male adult      yes
    1339   crew   male adult      yes
    1340   crew   male adult      yes
    1341   crew   male adult      yes
    1342   crew   male adult      yes
    1343   crew   male adult      yes
    1344   crew   male adult      yes
    1345   crew   male adult      yes
    1346   crew   male adult      yes
    1347   crew   male adult      yes
    1348   crew   male adult      yes
    1349   crew   male adult      yes
    1350   crew   male adult      yes
    1351   crew   male adult      yes
    1352   crew   male adult      yes
    1353   crew   male adult      yes
    1354   crew   male adult      yes
    1355   crew   male adult      yes
    1356   crew   male adult      yes
    1357   crew   male adult      yes
    1358   crew   male adult      yes
    1359   crew   male adult      yes
    1360   crew   male adult      yes
    1361   crew   male adult      yes
    1362   crew   male adult      yes
    1363   crew   male adult      yes
    1364   crew   male adult      yes
    1365   crew   male adult      yes
    1366   crew   male adult      yes
    1367   crew   male adult      yes
    1368   crew   male adult      yes
    1369   crew   male adult      yes
    1370   crew   male adult      yes
    1371   crew   male adult      yes
    1372   crew   male adult      yes
    1373   crew   male adult      yes
    1374   crew   male adult      yes
    1375   crew   male adult      yes
    1376   crew   male adult      yes
    1377   crew   male adult      yes
    1378   crew   male adult      yes
    1379   crew   male adult      yes
    1380   crew   male adult      yes
    1381   crew   male adult      yes
    1382   crew   male adult      yes
    1383   crew   male adult      yes
    1384   crew   male adult      yes
    1385   crew   male adult      yes
    1386   crew   male adult      yes
    1387   crew   male adult      yes
    1388   crew   male adult      yes
    1389   crew   male adult      yes
    1390   crew   male adult      yes
    1391   crew   male adult      yes
    1392   crew   male adult      yes
    1393   crew   male adult      yes
    1394   crew   male adult      yes
    1395   crew   male adult      yes
    1396   crew   male adult      yes
    1397   crew   male adult      yes
    1398   crew   male adult      yes
    1399   crew   male adult      yes
    1400   crew   male adult      yes
    1401   crew   male adult      yes
    1402   crew   male adult      yes
    1403   crew   male adult      yes
    1404   crew   male adult      yes
    1405   crew   male adult      yes
    1406   crew   male adult      yes
    1407   crew   male adult      yes
    1408   crew   male adult      yes
    1409   crew   male adult      yes
    1410   crew   male adult      yes
    1411   crew   male adult      yes
    1412   crew   male adult      yes
    1413   crew   male adult      yes
    1414   crew   male adult      yes
    1415   crew   male adult      yes
    1416   crew   male adult      yes
    1417   crew   male adult      yes
    1418   crew   male adult      yes
    1419   crew   male adult      yes
    1420   crew   male adult      yes
    1421   crew   male adult      yes
    1422   crew   male adult      yes
    1423   crew   male adult      yes
    1424   crew   male adult      yes
    1425   crew   male adult      yes
    1426   crew   male adult      yes
    1427   crew   male adult      yes
    1428   crew   male adult      yes
    1429   crew   male adult      yes
    1430   crew   male adult      yes
    1431   crew   male adult      yes
    1432   crew   male adult      yes
    1433   crew   male adult      yes
    1434   crew   male adult      yes
    1435   crew   male adult      yes
    1436   crew   male adult      yes
    1437   crew   male adult      yes
    1438   crew   male adult      yes
    1439   crew   male adult      yes
    1440   crew   male adult      yes
    1441   crew   male adult      yes
    1442   crew   male adult      yes
    1443   crew   male adult      yes
    1444   crew   male adult      yes
    1445   crew   male adult      yes
    1446   crew   male adult      yes
    1447   crew   male adult      yes
    1448   crew   male adult      yes
    1449   crew   male adult      yes
    1450   crew   male adult      yes
    1451   crew   male adult      yes
    1452   crew   male adult      yes
    1453   crew   male adult      yes
    1454   crew   male adult      yes
    1455   crew   male adult      yes
    1456   crew   male adult      yes
    1457   crew   male adult      yes
    1458   crew   male adult      yes
    1459   crew   male adult      yes
    1460   crew   male adult      yes
    1461   crew   male adult      yes
    1462   crew   male adult      yes
    1463   crew   male adult      yes
    1464   crew   male adult      yes
    1465   crew   male adult      yes
    1466   crew   male adult      yes
    1467   crew   male adult      yes
    1468   crew   male adult      yes
    1469   crew   male adult      yes
    1470   crew   male adult      yes
    1471   crew   male adult      yes
    1472   crew   male adult      yes
    1473   crew   male adult      yes
    1474   crew   male adult      yes
    1475   crew   male adult      yes
    1476   crew   male adult      yes
    1477   crew   male adult      yes
    1478   crew   male adult      yes
    1479   crew   male adult      yes
    1480   crew   male adult      yes
    1481   crew   male adult      yes
    1482   crew   male adult      yes
    1483   crew   male adult      yes
    1484   crew   male adult      yes
    1485   crew   male adult      yes
    1486   crew   male adult      yes
    1487   crew   male adult      yes
    1488   crew   male adult      yes
    1489   crew   male adult      yes
    1490   crew   male adult      yes
    1491   crew   male adult      yes
    1492   crew   male adult      yes
    1493   crew   male adult      yes
    1494   crew   male adult      yes
    1495   crew   male adult      yes
    1496   crew   male adult      yes
    1497   crew   male adult      yes
    1498   crew   male adult      yes
    1499   crew   male adult      yes
    1500   crew   male adult      yes
    1501   crew   male adult      yes
    1502   crew   male adult      yes
    1503   crew   male adult      yes
    1504   crew   male adult      yes
    1505   crew   male adult      yes
    1506   crew   male adult      yes
    1507   crew   male adult      yes
    1508   crew   male adult      yes
    1509   crew   male adult       no
    1510   crew   male adult       no
    1511   crew   male adult       no
    1512   crew   male adult       no
    1513   crew   male adult       no
    1514   crew   male adult       no
    1515   crew   male adult       no
    1516   crew   male adult       no
    1517   crew   male adult       no
    1518   crew   male adult       no
    1519   crew   male adult       no
    1520   crew   male adult       no
    1521   crew   male adult       no
    1522   crew   male adult       no
    1523   crew   male adult       no
    1524   crew   male adult       no
    1525   crew   male adult       no
    1526   crew   male adult       no
    1527   crew   male adult       no
    1528   crew   male adult       no
    1529   crew   male adult       no
    1530   crew   male adult       no
    1531   crew   male adult       no
    1532   crew   male adult       no
    1533   crew   male adult       no
    1534   crew   male adult       no
    1535   crew   male adult       no
    1536   crew   male adult       no
    1537   crew   male adult       no
    1538   crew   male adult       no
    1539   crew   male adult       no
    1540   crew   male adult       no
    1541   crew   male adult       no
    1542   crew   male adult       no
    1543   crew   male adult       no
    1544   crew   male adult       no
    1545   crew   male adult       no
    1546   crew   male adult       no
    1547   crew   male adult       no
    1548   crew   male adult       no
    1549   crew   male adult       no
    1550   crew   male adult       no
    1551   crew   male adult       no
    1552   crew   male adult       no
    1553   crew   male adult       no
    1554   crew   male adult       no
    1555   crew   male adult       no
    1556   crew   male adult       no
    1557   crew   male adult       no
    1558   crew   male adult       no
    1559   crew   male adult       no
    1560   crew   male adult       no
    1561   crew   male adult       no
    1562   crew   male adult       no
    1563   crew   male adult       no
    1564   crew   male adult       no
    1565   crew   male adult       no
    1566   crew   male adult       no
    1567   crew   male adult       no
    1568   crew   male adult       no
    1569   crew   male adult       no
    1570   crew   male adult       no
    1571   crew   male adult       no
    1572   crew   male adult       no
    1573   crew   male adult       no
    1574   crew   male adult       no
    1575   crew   male adult       no
    1576   crew   male adult       no
    1577   crew   male adult       no
    1578   crew   male adult       no
    1579   crew   male adult       no
    1580   crew   male adult       no
    1581   crew   male adult       no
    1582   crew   male adult       no
    1583   crew   male adult       no
    1584   crew   male adult       no
    1585   crew   male adult       no
    1586   crew   male adult       no
    1587   crew   male adult       no
    1588   crew   male adult       no
    1589   crew   male adult       no
    1590   crew   male adult       no
    1591   crew   male adult       no
    1592   crew   male adult       no
    1593   crew   male adult       no
    1594   crew   male adult       no
    1595   crew   male adult       no
    1596   crew   male adult       no
    1597   crew   male adult       no
    1598   crew   male adult       no
    1599   crew   male adult       no
    1600   crew   male adult       no
    1601   crew   male adult       no
    1602   crew   male adult       no
    1603   crew   male adult       no
    1604   crew   male adult       no
    1605   crew   male adult       no
    1606   crew   male adult       no
    1607   crew   male adult       no
    1608   crew   male adult       no
    1609   crew   male adult       no
    1610   crew   male adult       no
    1611   crew   male adult       no
    1612   crew   male adult       no
    1613   crew   male adult       no
    1614   crew   male adult       no
    1615   crew   male adult       no
    1616   crew   male adult       no
    1617   crew   male adult       no
    1618   crew   male adult       no
    1619   crew   male adult       no
    1620   crew   male adult       no
    1621   crew   male adult       no
    1622   crew   male adult       no
    1623   crew   male adult       no
    1624   crew   male adult       no
    1625   crew   male adult       no
    1626   crew   male adult       no
    1627   crew   male adult       no
    1628   crew   male adult       no
    1629   crew   male adult       no
    1630   crew   male adult       no
    1631   crew   male adult       no
    1632   crew   male adult       no
    1633   crew   male adult       no
    1634   crew   male adult       no
    1635   crew   male adult       no
    1636   crew   male adult       no
    1637   crew   male adult       no
    1638   crew   male adult       no
    1639   crew   male adult       no
    1640   crew   male adult       no
    1641   crew   male adult       no
    1642   crew   male adult       no
    1643   crew   male adult       no
    1644   crew   male adult       no
    1645   crew   male adult       no
    1646   crew   male adult       no
    1647   crew   male adult       no
    1648   crew   male adult       no
    1649   crew   male adult       no
    1650   crew   male adult       no
    1651   crew   male adult       no
    1652   crew   male adult       no
    1653   crew   male adult       no
    1654   crew   male adult       no
    1655   crew   male adult       no
    1656   crew   male adult       no
    1657   crew   male adult       no
    1658   crew   male adult       no
    1659   crew   male adult       no
    1660   crew   male adult       no
    1661   crew   male adult       no
    1662   crew   male adult       no
    1663   crew   male adult       no
    1664   crew   male adult       no
    1665   crew   male adult       no
    1666   crew   male adult       no
    1667   crew   male adult       no
    1668   crew   male adult       no
    1669   crew   male adult       no
    1670   crew   male adult       no
    1671   crew   male adult       no
    1672   crew   male adult       no
    1673   crew   male adult       no
    1674   crew   male adult       no
    1675   crew   male adult       no
    1676   crew   male adult       no
    1677   crew   male adult       no
    1678   crew   male adult       no
    1679   crew   male adult       no
    1680   crew   male adult       no
    1681   crew   male adult       no
    1682   crew   male adult       no
    1683   crew   male adult       no
    1684   crew   male adult       no
    1685   crew   male adult       no
    1686   crew   male adult       no
    1687   crew   male adult       no
    1688   crew   male adult       no
    1689   crew   male adult       no
    1690   crew   male adult       no
    1691   crew   male adult       no
    1692   crew   male adult       no
    1693   crew   male adult       no
    1694   crew   male adult       no
    1695   crew   male adult       no
    1696   crew   male adult       no
    1697   crew   male adult       no
    1698   crew   male adult       no
    1699   crew   male adult       no
    1700   crew   male adult       no
    1701   crew   male adult       no
    1702   crew   male adult       no
    1703   crew   male adult       no
    1704   crew   male adult       no
    1705   crew   male adult       no
    1706   crew   male adult       no
    1707   crew   male adult       no
    1708   crew   male adult       no
    1709   crew   male adult       no
    1710   crew   male adult       no
    1711   crew   male adult       no
    1712   crew   male adult       no
    1713   crew   male adult       no
    1714   crew   male adult       no
    1715   crew   male adult       no
    1716   crew   male adult       no
    1717   crew   male adult       no
    1718   crew   male adult       no
    1719   crew   male adult       no
    1720   crew   male adult       no
    1721   crew   male adult       no
    1722   crew   male adult       no
    1723   crew   male adult       no
    1724   crew   male adult       no
    1725   crew   male adult       no
    1726   crew   male adult       no
    1727   crew   male adult       no
    1728   crew   male adult       no
    1729   crew   male adult       no
    1730   crew   male adult       no
    1731   crew   male adult       no
    1732   crew   male adult       no
    1733   crew   male adult       no
    1734   crew   male adult       no
    1735   crew   male adult       no
    1736   crew   male adult       no
    1737   crew   male adult       no
    1738   crew   male adult       no
    1739   crew   male adult       no
    1740   crew   male adult       no
    1741   crew   male adult       no
    1742   crew   male adult       no
    1743   crew   male adult       no
    1744   crew   male adult       no
    1745   crew   male adult       no
    1746   crew   male adult       no
    1747   crew   male adult       no
    1748   crew   male adult       no
    1749   crew   male adult       no
    1750   crew   male adult       no
    1751   crew   male adult       no
    1752   crew   male adult       no
    1753   crew   male adult       no
    1754   crew   male adult       no
    1755   crew   male adult       no
    1756   crew   male adult       no
    1757   crew   male adult       no
    1758   crew   male adult       no
    1759   crew   male adult       no
    1760   crew   male adult       no
    1761   crew   male adult       no
    1762   crew   male adult       no
    1763   crew   male adult       no
    1764   crew   male adult       no
    1765   crew   male adult       no
    1766   crew   male adult       no
    1767   crew   male adult       no
    1768   crew   male adult       no
    1769   crew   male adult       no
    1770   crew   male adult       no
    1771   crew   male adult       no
    1772   crew   male adult       no
    1773   crew   male adult       no
    1774   crew   male adult       no
    1775   crew   male adult       no
    1776   crew   male adult       no
    1777   crew   male adult       no
    1778   crew   male adult       no
    1779   crew   male adult       no
    1780   crew   male adult       no
    1781   crew   male adult       no
    1782   crew   male adult       no
    1783   crew   male adult       no
    1784   crew   male adult       no
    1785   crew   male adult       no
    1786   crew   male adult       no
    1787   crew   male adult       no
    1788   crew   male adult       no
    1789   crew   male adult       no
    1790   crew   male adult       no
    1791   crew   male adult       no
    1792   crew   male adult       no
    1793   crew   male adult       no
    1794   crew   male adult       no
    1795   crew   male adult       no
    1796   crew   male adult       no
    1797   crew   male adult       no
    1798   crew   male adult       no
    1799   crew   male adult       no
    1800   crew   male adult       no
    1801   crew   male adult       no
    1802   crew   male adult       no
    1803   crew   male adult       no
    1804   crew   male adult       no
    1805   crew   male adult       no
    1806   crew   male adult       no
    1807   crew   male adult       no
    1808   crew   male adult       no
    1809   crew   male adult       no
    1810   crew   male adult       no
    1811   crew   male adult       no
    1812   crew   male adult       no
    1813   crew   male adult       no
    1814   crew   male adult       no
    1815   crew   male adult       no
    1816   crew   male adult       no
    1817   crew   male adult       no
    1818   crew   male adult       no
    1819   crew   male adult       no
    1820   crew   male adult       no
    1821   crew   male adult       no
    1822   crew   male adult       no
    1823   crew   male adult       no
    1824   crew   male adult       no
    1825   crew   male adult       no
    1826   crew   male adult       no
    1827   crew   male adult       no
    1828   crew   male adult       no
    1829   crew   male adult       no
    1830   crew   male adult       no
    1831   crew   male adult       no
    1832   crew   male adult       no
    1833   crew   male adult       no
    1834   crew   male adult       no
    1835   crew   male adult       no
    1836   crew   male adult       no
    1837   crew   male adult       no
    1838   crew   male adult       no
    1839   crew   male adult       no
    1840   crew   male adult       no
    1841   crew   male adult       no
    1842   crew   male adult       no
    1843   crew   male adult       no
    1844   crew   male adult       no
    1845   crew   male adult       no
    1846   crew   male adult       no
    1847   crew   male adult       no
    1848   crew   male adult       no
    1849   crew   male adult       no
    1850   crew   male adult       no
    1851   crew   male adult       no
    1852   crew   male adult       no
    1853   crew   male adult       no
    1854   crew   male adult       no
    1855   crew   male adult       no
    1856   crew   male adult       no
    1857   crew   male adult       no
    1858   crew   male adult       no
    1859   crew   male adult       no
    1860   crew   male adult       no
    1861   crew   male adult       no
    1862   crew   male adult       no
    1863   crew   male adult       no
    1864   crew   male adult       no
    1865   crew   male adult       no
    1866   crew   male adult       no
    1867   crew   male adult       no
    1868   crew   male adult       no
    1869   crew   male adult       no
    1870   crew   male adult       no
    1871   crew   male adult       no
    1872   crew   male adult       no
    1873   crew   male adult       no
    1874   crew   male adult       no
    1875   crew   male adult       no
    1876   crew   male adult       no
    1877   crew   male adult       no
    1878   crew   male adult       no
    1879   crew   male adult       no
    1880   crew   male adult       no
    1881   crew   male adult       no
    1882   crew   male adult       no
    1883   crew   male adult       no
    1884   crew   male adult       no
    1885   crew   male adult       no
    1886   crew   male adult       no
    1887   crew   male adult       no
    1888   crew   male adult       no
    1889   crew   male adult       no
    1890   crew   male adult       no
    1891   crew   male adult       no
    1892   crew   male adult       no
    1893   crew   male adult       no
    1894   crew   male adult       no
    1895   crew   male adult       no
    1896   crew   male adult       no
    1897   crew   male adult       no
    1898   crew   male adult       no
    1899   crew   male adult       no
    1900   crew   male adult       no
    1901   crew   male adult       no
    1902   crew   male adult       no
    1903   crew   male adult       no
    1904   crew   male adult       no
    1905   crew   male adult       no
    1906   crew   male adult       no
    1907   crew   male adult       no
    1908   crew   male adult       no
    1909   crew   male adult       no
    1910   crew   male adult       no
    1911   crew   male adult       no
    1912   crew   male adult       no
    1913   crew   male adult       no
    1914   crew   male adult       no
    1915   crew   male adult       no
    1916   crew   male adult       no
    1917   crew   male adult       no
    1918   crew   male adult       no
    1919   crew   male adult       no
    1920   crew   male adult       no
    1921   crew   male adult       no
    1922   crew   male adult       no
    1923   crew   male adult       no
    1924   crew   male adult       no
    1925   crew   male adult       no
    1926   crew   male adult       no
    1927   crew   male adult       no
    1928   crew   male adult       no
    1929   crew   male adult       no
    1930   crew   male adult       no
    1931   crew   male adult       no
    1932   crew   male adult       no
    1933   crew   male adult       no
    1934   crew   male adult       no
    1935   crew   male adult       no
    1936   crew   male adult       no
    1937   crew   male adult       no
    1938   crew   male adult       no
    1939   crew   male adult       no
    1940   crew   male adult       no
    1941   crew   male adult       no
    1942   crew   male adult       no
    1943   crew   male adult       no
    1944   crew   male adult       no
    1945   crew   male adult       no
    1946   crew   male adult       no
    1947   crew   male adult       no
    1948   crew   male adult       no
    1949   crew   male adult       no
    1950   crew   male adult       no
    1951   crew   male adult       no
    1952   crew   male adult       no
    1953   crew   male adult       no
    1954   crew   male adult       no
    1955   crew   male adult       no
    1956   crew   male adult       no
    1957   crew   male adult       no
    1958   crew   male adult       no
    1959   crew   male adult       no
    1960   crew   male adult       no
    1961   crew   male adult       no
    1962   crew   male adult       no
    1963   crew   male adult       no
    1964   crew   male adult       no
    1965   crew   male adult       no
    1966   crew   male adult       no
    1967   crew   male adult       no
    1968   crew   male adult       no
    1969   crew   male adult       no
    1970   crew   male adult       no
    1971   crew   male adult       no
    1972   crew   male adult       no
    1973   crew   male adult       no
    1974   crew   male adult       no
    1975   crew   male adult       no
    1976   crew   male adult       no
    1977   crew   male adult       no
    1978   crew   male adult       no
    1979   crew   male adult       no
    1980   crew   male adult       no
    1981   crew   male adult       no
    1982   crew   male adult       no
    1983   crew   male adult       no
    1984   crew   male adult       no
    1985   crew   male adult       no
    1986   crew   male adult       no
    1987   crew   male adult       no
    1988   crew   male adult       no
    1989   crew   male adult       no
    1990   crew   male adult       no
    1991   crew   male adult       no
    1992   crew   male adult       no
    1993   crew   male adult       no
    1994   crew   male adult       no
    1995   crew   male adult       no
    1996   crew   male adult       no
    1997   crew   male adult       no
    1998   crew   male adult       no
    1999   crew   male adult       no
    2000   crew   male adult       no
    2001   crew   male adult       no
    2002   crew   male adult       no
    2003   crew   male adult       no
    2004   crew   male adult       no
    2005   crew   male adult       no
    2006   crew   male adult       no
    2007   crew   male adult       no
    2008   crew   male adult       no
    2009   crew   male adult       no
    2010   crew   male adult       no
    2011   crew   male adult       no
    2012   crew   male adult       no
    2013   crew   male adult       no
    2014   crew   male adult       no
    2015   crew   male adult       no
    2016   crew   male adult       no
    2017   crew   male adult       no
    2018   crew   male adult       no
    2019   crew   male adult       no
    2020   crew   male adult       no
    2021   crew   male adult       no
    2022   crew   male adult       no
    2023   crew   male adult       no
    2024   crew   male adult       no
    2025   crew   male adult       no
    2026   crew   male adult       no
    2027   crew   male adult       no
    2028   crew   male adult       no
    2029   crew   male adult       no
    2030   crew   male adult       no
    2031   crew   male adult       no
    2032   crew   male adult       no
    2033   crew   male adult       no
    2034   crew   male adult       no
    2035   crew   male adult       no
    2036   crew   male adult       no
    2037   crew   male adult       no
    2038   crew   male adult       no
    2039   crew   male adult       no
    2040   crew   male adult       no
    2041   crew   male adult       no
    2042   crew   male adult       no
    2043   crew   male adult       no
    2044   crew   male adult       no
    2045   crew   male adult       no
    2046   crew   male adult       no
    2047   crew   male adult       no
    2048   crew   male adult       no
    2049   crew   male adult       no
    2050   crew   male adult       no
    2051   crew   male adult       no
    2052   crew   male adult       no
    2053   crew   male adult       no
    2054   crew   male adult       no
    2055   crew   male adult       no
    2056   crew   male adult       no
    2057   crew   male adult       no
    2058   crew   male adult       no
    2059   crew   male adult       no
    2060   crew   male adult       no
    2061   crew   male adult       no
    2062   crew   male adult       no
    2063   crew   male adult       no
    2064   crew   male adult       no
    2065   crew   male adult       no
    2066   crew   male adult       no
    2067   crew   male adult       no
    2068   crew   male adult       no
    2069   crew   male adult       no
    2070   crew   male adult       no
    2071   crew   male adult       no
    2072   crew   male adult       no
    2073   crew   male adult       no
    2074   crew   male adult       no
    2075   crew   male adult       no
    2076   crew   male adult       no
    2077   crew   male adult       no
    2078   crew   male adult       no
    2079   crew   male adult       no
    2080   crew   male adult       no
    2081   crew   male adult       no
    2082   crew   male adult       no
    2083   crew   male adult       no
    2084   crew   male adult       no
    2085   crew   male adult       no
    2086   crew   male adult       no
    2087   crew   male adult       no
    2088   crew   male adult       no
    2089   crew   male adult       no
    2090   crew   male adult       no
    2091   crew   male adult       no
    2092   crew   male adult       no
    2093   crew   male adult       no
    2094   crew   male adult       no
    2095   crew   male adult       no
    2096   crew   male adult       no
    2097   crew   male adult       no
    2098   crew   male adult       no
    2099   crew   male adult       no
    2100   crew   male adult       no
    2101   crew   male adult       no
    2102   crew   male adult       no
    2103   crew   male adult       no
    2104   crew   male adult       no
    2105   crew   male adult       no
    2106   crew   male adult       no
    2107   crew   male adult       no
    2108   crew   male adult       no
    2109   crew   male adult       no
    2110   crew   male adult       no
    2111   crew   male adult       no
    2112   crew   male adult       no
    2113   crew   male adult       no
    2114   crew   male adult       no
    2115   crew   male adult       no
    2116   crew   male adult       no
    2117   crew   male adult       no
    2118   crew   male adult       no
    2119   crew   male adult       no
    2120   crew   male adult       no
    2121   crew   male adult       no
    2122   crew   male adult       no
    2123   crew   male adult       no
    2124   crew   male adult       no
    2125   crew   male adult       no
    2126   crew   male adult       no
    2127   crew   male adult       no
    2128   crew   male adult       no
    2129   crew   male adult       no
    2130   crew   male adult       no
    2131   crew   male adult       no
    2132   crew   male adult       no
    2133   crew   male adult       no
    2134   crew   male adult       no
    2135   crew   male adult       no
    2136   crew   male adult       no
    2137   crew   male adult       no
    2138   crew   male adult       no
    2139   crew   male adult       no
    2140   crew   male adult       no
    2141   crew   male adult       no
    2142   crew   male adult       no
    2143   crew   male adult       no
    2144   crew   male adult       no
    2145   crew   male adult       no
    2146   crew   male adult       no
    2147   crew   male adult       no
    2148   crew   male adult       no
    2149   crew   male adult       no
    2150   crew   male adult       no
    2151   crew   male adult       no
    2152   crew   male adult       no
    2153   crew   male adult       no
    2154   crew   male adult       no
    2155   crew   male adult       no
    2156   crew   male adult       no
    2157   crew   male adult       no
    2158   crew   male adult       no
    2159   crew   male adult       no
    2160   crew   male adult       no
    2161   crew   male adult       no
    2162   crew   male adult       no
    2163   crew   male adult       no
    2164   crew   male adult       no
    2165   crew   male adult       no
    2166   crew   male adult       no
    2167   crew   male adult       no
    2168   crew   male adult       no
    2169   crew   male adult       no
    2170   crew   male adult       no
    2171   crew   male adult       no
    2172   crew   male adult       no
    2173   crew   male adult       no
    2174   crew   male adult       no
    2175   crew   male adult       no
    2176   crew   male adult       no
    2177   crew   male adult       no
    2178   crew   male adult       no
    2179   crew female adult      yes
    2180   crew female adult      yes
    2181   crew female adult      yes
    2182   crew female adult      yes
    2183   crew female adult      yes
    2184   crew female adult      yes
    2185   crew female adult      yes
    2186   crew female adult      yes
    2187   crew female adult      yes
    2188   crew female adult      yes
    2189   crew female adult      yes
    2190   crew female adult      yes
    2191   crew female adult      yes
    2192   crew female adult      yes
    2193   crew female adult      yes
    2194   crew female adult      yes
    2195   crew female adult      yes
    2196   crew female adult      yes
    2197   crew female adult      yes
    2198   crew female adult      yes
    2199   crew female adult       no
    2200   crew female adult       no
    2201   crew female adult       no


